<?xml version="1.0" encoding="UTF-8"?>
<svg width="46px" height="48px" viewBox="0 0 46 48" version="1.1" xmlns="http://www.w3.org/2000/svg" xmlns:xlink="http://www.w3.org/1999/xlink">
    <!-- Generator: Sketch 57.1 (83088) - https://sketch.com -->
    <title>Combined Shape</title>
    <desc>Created with Sketch.</desc>
    <g id="Page-1" stroke="none" stroke-width="1" fill="none" fill-rule="evenodd">
        <g id="9-Almacenamiento-1a" transform="translate(-536.000000, -357.000000)" fill="#274667" fill-rule="nonzero">
            <g id="Group-4" transform="translate(384.000000, 283.000000)">
                <path d="M187.36428,74 C187.7441,74 188.093123,74.1746575 188.329227,74.4726027 L188.329227,74.4726027 L197.742593,86.4212329 C197.917104,86.6369863 198.009493,86.9041096 197.999228,87.1815068 L197.999228,87.1815068 L197.999228,120.767123 C197.999228,121.445205 197.444896,122 196.76738,122 L196.76738,122 L153.231847,122 C152.554331,122 152,121.445205 152,120.767123 L152,120.767123 L152,87.1815068 C152,86.9041096 152.092389,86.6369863 152.2669,86.4212329 L152.2669,86.4212329 L161.680266,74.4726027 C161.91637,74.1746575 162.265393,74 162.645213,74 L162.645213,74 Z M195.535533,88.619863 L154.463694,88.619863 L154.463694,119.534247 L195.535533,119.534247 L195.535533,88.619863 Z M180.309532,98.3733081 C180.775229,97.8738067 181.528271,97.8738067 181.98406,98.3839358 C182.449758,98.8834371 182.449758,99.6911415 181.98406,100.190643 L181.98406,100.190643 L173.185353,109.628031 C172.94755,109.872468 172.650296,110 172.343134,110 C172.035972,110 171.72881,109.872468 171.500915,109.628031 L171.500915,109.628031 L167.349273,105.175029 C166.883576,104.675528 166.883576,103.867823 167.349273,103.368322 C167.81497,102.868821 168.568013,102.868821 169.03371,103.368322 L169.03371,103.368322 L172.343134,106.91797 Z M186.768887,76.4657534 L163.240606,76.4657534 L155.613418,86.1541096 L194.396074,86.1541096 L186.768887,76.4657534 Z" id="Combined-Shape"></path>
            </g>
        </g>
    </g>
</svg>