<?xml version="1.0" encoding="UTF-8"?>
<svg width="54px" height="53px" viewBox="0 0 54 53" version="1.1" xmlns="http://www.w3.org/2000/svg" xmlns:xlink="http://www.w3.org/1999/xlink">
    <!-- Generator: Sketch 57.1 (83088) - https://sketch.com -->
    <title>Group</title>
    <desc>Created with Sketch.</desc>
    <g id="Page-1" stroke="none" stroke-width="1" fill="none" fill-rule="evenodd">
        <g id="8-Tipo-de-Uso" transform="translate(-513.000000, -356.000000)" fill="#274667" fill-rule="nonzero">
            <g id="Group-3" transform="translate(365.000000, 285.000000)">
                <g id="Group" transform="translate(148.000000, 71.000000)">
                    <path d="M53.5790163,53 L53.5790163,10 L50.910578,10 L50.910578,18.9204667 L2.49950029,18.9204667 L2.49950029,10 L2.13162821e-14,10 L2.13162821e-14,53 L2.49950029,53 L2.49950029,46.9761678 L50.910578,46.9761678 L50.910578,53 L53.5790163,53 Z M2.49950029,44.9551732 L2.49950029,20.90136 L50.910578,20.90136 L50.910578,44.9551732 L2.49950029,44.9551732 Z" id="Shape"></path>
                    <path d="M26,17 L26,0 L5,0 L5,17 L26,17 L26,17 Z M7.74944376,2.87546602 L14.3475675,2.87546602 L14.3475675,7.8178131 L16.652441,7.8178131 L16.652441,2.87546602 L23.2504986,2.87546602 L23.2504986,14.124534 L7.74944376,14.124534 L7.74944376,2.87546602 Z" id="Shape"></path>
                    <path d="M26,43 L26,26 L5,26 L5,43 L26,43 L26,43 Z M7.74944376,28.875466 L14.3475675,28.875466 L14.3475675,33.8178131 L16.652441,33.8178131 L16.652441,28.875466 L23.2504986,28.875466 L23.2504986,40.124534 L7.74944376,40.124534 L7.74944376,28.875466 Z" id="Shape-Copy-2"></path>
                    <path d="M49,17 L49,0 L28,0 L28,17 L49,17 L49,17 Z M30.7494438,2.87546602 L37.3475675,2.87546602 L37.3475675,7.8178131 L39.652441,7.8178131 L39.652441,2.87546602 L46.2504986,2.87546602 L46.2504986,14.124534 L30.7494438,14.124534 L30.7494438,2.87546602 Z" id="Shape-Copy"></path>
                    <path d="M49,43 L49,26 L28,26 L28,43 L49,43 L49,43 Z M30.7494438,28.875466 L37.3475675,28.875466 L37.3475675,33.8178131 L39.652441,33.8178131 L39.652441,28.875466 L46.2504986,28.875466 L46.2504986,40.124534 L30.7494438,40.124534 L30.7494438,28.875466 Z" id="Shape-Copy-3"></path>
                </g>
            </g>
        </g>
    </g>
</svg>