<svg xmlns="http://www.w3.org/2000/svg" width="14" height="18" viewBox="0 0 14 18">
    <path fill="#455464" fill-rule="nonzero" d="M13.364 0c.172 0 .321.064.447.19A.621.621 0 0 1 14 .644v16.714a.622.622 0 0 1-.189.452.608.608 0 0 1-.447.191H.636a.609.609 0 0 1-.447-.19.621.621 0 0 1-.189-.453V.643C0 .469.063.318.189.19A.609.609 0 0 1 .636 0zm-.637 1.286H1.273v15.428H5.09v-2.25a.31.31 0 0 1 .094-.226.304.304 0 0 1 .224-.095h3.182c.086 0 .16.032.224.095a.311.311 0 0 1 .094.226v2.25h3.818V1.286zM3.5 12.857c.086 0 .16.032.224.096a.31.31 0 0 1 .094.226v.642a.31.31 0 0 1-.094.227.304.304 0 0 1-.224.095h-.636a.304.304 0 0 1-.224-.095.31.31 0 0 1-.094-.227v-.642a.31.31 0 0 1 .094-.226.304.304 0 0 1 .224-.096zm7.636 0c.087 0 .161.032.224.096a.31.31 0 0 1 .094.226v.642a.31.31 0 0 1-.094.227.304.304 0 0 1-.224.095H10.5a.304.304 0 0 1-.224-.095.31.31 0 0 1-.094-.227v-.642a.31.31 0 0 1 .094-.226.304.304 0 0 1 .224-.096zM3.5 10.286c.086 0 .16.032.224.095a.31.31 0 0 1 .094.226v.643a.31.31 0 0 1-.094.226.304.304 0 0 1-.224.095h-.636a.304.304 0 0 1-.224-.095.31.31 0 0 1-.094-.226v-.643a.31.31 0 0 1 .094-.226.304.304 0 0 1 .224-.095zm2.546 0c.086 0 .16.032.223.095a.311.311 0 0 1 .095.226v.643a.31.31 0 0 1-.095.226.304.304 0 0 1-.223.095h-.637a.304.304 0 0 1-.224-.095.311.311 0 0 1-.094-.226v-.643a.31.31 0 0 1 .094-.226.304.304 0 0 1 .224-.095zm2.545 0c.086 0 .16.032.224.095a.311.311 0 0 1 .094.226v.643a.312.312 0 0 1-.094.226.305.305 0 0 1-.224.095h-.636a.305.305 0 0 1-.224-.095.311.311 0 0 1-.095-.226v-.643c0-.087.032-.162.095-.226a.305.305 0 0 1 .224-.095zm2.545 0c.087 0 .161.032.224.095a.31.31 0 0 1 .094.226v.643a.31.31 0 0 1-.094.226.305.305 0 0 1-.224.095H10.5a.304.304 0 0 1-.224-.095.31.31 0 0 1-.094-.226v-.643a.31.31 0 0 1 .094-.226.304.304 0 0 1 .224-.095zM3.5 7.714c.086 0 .16.032.224.096a.31.31 0 0 1 .094.226v.643a.31.31 0 0 1-.094.226A.304.304 0 0 1 3.5 9h-.636a.304.304 0 0 1-.224-.095.31.31 0 0 1-.094-.226v-.643a.31.31 0 0 1 .094-.226.304.304 0 0 1 .224-.096zm2.546 0c.086 0 .16.032.223.096a.311.311 0 0 1 .095.226v.643a.31.31 0 0 1-.095.226.304.304 0 0 1-.223.095h-.637a.304.304 0 0 1-.224-.095.31.31 0 0 1-.094-.226v-.643a.31.31 0 0 1 .094-.226.304.304 0 0 1 .224-.096zm2.545 0c.086 0 .16.032.224.096a.311.311 0 0 1 .094.226v.643a.311.311 0 0 1-.094.226A.305.305 0 0 1 8.59 9h-.636a.305.305 0 0 1-.224-.095.311.311 0 0 1-.095-.226v-.643c0-.087.032-.163.095-.226a.305.305 0 0 1 .224-.096zm2.545 0c.087 0 .161.032.224.096a.311.311 0 0 1 .094.226v.643a.31.31 0 0 1-.094.226.304.304 0 0 1-.224.095H10.5a.304.304 0 0 1-.224-.095.31.31 0 0 1-.094-.226v-.643a.31.31 0 0 1 .094-.226.304.304 0 0 1 .224-.096zM3.5 5.143c.086 0 .16.032.224.095a.31.31 0 0 1 .094.226v.643a.31.31 0 0 1-.094.226.304.304 0 0 1-.224.096h-.636a.305.305 0 0 1-.224-.096.31.31 0 0 1-.094-.226v-.643a.31.31 0 0 1 .094-.226.304.304 0 0 1 .224-.095zm2.546 0c.086 0 .16.032.223.095a.31.31 0 0 1 .095.226v.643a.31.31 0 0 1-.095.226.304.304 0 0 1-.223.096h-.637a.304.304 0 0 1-.224-.096.31.31 0 0 1-.094-.226v-.643a.31.31 0 0 1 .094-.226.304.304 0 0 1 .224-.095zm2.545 0c.086 0 .16.032.224.095a.31.31 0 0 1 .094.226v.643a.311.311 0 0 1-.094.226.305.305 0 0 1-.224.096h-.636a.305.305 0 0 1-.224-.096.31.31 0 0 1-.095-.226v-.643c0-.087.032-.162.095-.226a.305.305 0 0 1 .224-.095zm2.545 0c.087 0 .161.032.224.095a.31.31 0 0 1 .094.226v.643a.31.31 0 0 1-.094.226.305.305 0 0 1-.224.096H10.5a.304.304 0 0 1-.224-.096.31.31 0 0 1-.094-.226v-.643a.31.31 0 0 1 .094-.226.304.304 0 0 1 .224-.095zM3.5 2.57c.086 0 .16.032.224.096a.31.31 0 0 1 .094.226v.643a.31.31 0 0 1-.094.226.304.304 0 0 1-.224.095h-.636a.304.304 0 0 1-.224-.095.31.31 0 0 1-.094-.226v-.643a.31.31 0 0 1 .094-.226.304.304 0 0 1 .224-.096zm2.546 0c.086 0 .16.032.223.096a.311.311 0 0 1 .095.226v.643a.31.31 0 0 1-.095.226.304.304 0 0 1-.223.095h-.637a.304.304 0 0 1-.224-.095.31.31 0 0 1-.094-.226v-.643a.31.31 0 0 1 .094-.226.304.304 0 0 1 .224-.096zm2.545 0c.086 0 .16.032.224.096a.311.311 0 0 1 .094.226v.643a.311.311 0 0 1-.094.226.305.305 0 0 1-.224.095h-.636a.305.305 0 0 1-.224-.095.31.31 0 0 1-.095-.226v-.643c0-.087.032-.163.095-.226a.305.305 0 0 1 .224-.096zm2.545 0c.087 0 .161.032.224.096a.31.31 0 0 1 .094.226v.643a.31.31 0 0 1-.094.226.305.305 0 0 1-.224.095H10.5a.304.304 0 0 1-.224-.095.31.31 0 0 1-.094-.226v-.643a.31.31 0 0 1 .094-.226.304.304 0 0 1 .224-.096z"/>
</svg>
