<svg xmlns="http://www.w3.org/2000/svg" width="8" height="6" viewBox="0 0 8 6">
    <path fill="#D5D5D5" fill-rule="evenodd" d="M4.342 5.817L7.878.681C8.151.306 7.95 0 7.432 0H.568C.05 0-.151.306.122.68l3.536 5.137S3.8 6 4 6c.2 0 .342-.183.342-.183z"/>
</svg>
