<?xml version="1.0" encoding="utf-8"?>
<!-- Generator: Adobe Illustrator 23.0.4, SVG Export Plug-In . SVG Version: 6.00 Build 0)  -->
<svg version="1.1" id="Capa_1" xmlns="http://www.w3.org/2000/svg" xmlns:xlink="http://www.w3.org/1999/xlink" x="0px" y="0px"
	 viewBox="0 0 18.6 24.8" style="enable-background:new 0 0 18.6 24.8;" xml:space="preserve">
<style type="text/css">
	.st0{fill:none;stroke:#274667;stroke-width:0.75;stroke-opacity:0.5998;}
</style>
<title>tri</title>
<g>
	<g id="Capa_1-2">
		<g id="Page-1">
			<polyline class="st0" points="22.9,30.4 8.7,11.5 -5.5,-7.4 			"/>
		</g>
	</g>
</g>
</svg>
