<?xml version="1.0" encoding="UTF-8"?>
<svg width="134px" height="133px" viewBox="0 0 134 133" version="1.1" xmlns="http://www.w3.org/2000/svg" xmlns:xlink="http://www.w3.org/1999/xlink">
    <!-- Generator: Sketch 57.1 (83088) - https://sketch.com -->
    <title>Fill 1</title>
    <desc>Created with Sketch.</desc>
    <g id="Page-1" stroke="none" stroke-width="1" fill="none" fill-rule="evenodd">
        <g id="5-Especificaciones-2a" transform="translate(-811.000000, -509.000000)" fill="#F8F8F8" stroke="#274667" stroke-width="2.55999989">
            <g id="Group" transform="translate(514.000000, 284.000000)">
                <polygon id="Fill-1" points="364 228 300 356 428 356"></polygon>
            </g>
        </g>
    </g>
</svg>