<?xml version="1.0" standalone="no"?>
<!DOCTYPE svg PUBLIC "-//W3C//DTD SVG 1.1//EN" "http://www.w3.org/Graphics/SVG/1.1/DTD/svg11.dtd" >
<svg xmlns="http://www.w3.org/2000/svg">
<metadata>Generated by IcoMoon</metadata>
<defs>
<font id="icons" horiz-adv-x="1024">
<font-face units-per-em="1024" ascent="960" descent="-64" />
<missing-glyph horiz-adv-x="1024" />
<glyph unicode="&#x20;" horiz-adv-x="512" d="" />
<glyph unicode="&#xe900;" glyph-name="prototipos" horiz-adv-x="1243" d="M1243.429 667.429v-729.746h-1243.429v729.746h1243.429zM1199.031 629.979h-1154.633v-654.848h1154.633v654.848zM1110.235 813.714c0.38 0.023 0.825 0.037 1.273 0.037 12.24 0 22.162-9.922 22.162-22.162s-9.922-22.162-22.162-22.162c-0.448 0-0.892 0.013-1.333 0.039l0.061-0.003h-977.115c-0.38-0.023-0.825-0.037-1.273-0.037-12.24 0-22.162 9.922-22.162 22.162s9.922 22.162 22.162 22.162c0.448 0 0.892-0.013 1.333-0.039l-0.061 0.003zM1043.602 960c0.38 0.023 0.825 0.037 1.273 0.037 12.24 0 22.162-9.922 22.162-22.162s-9.922-22.162-22.162-22.162c-0.448 0-0.892 0.013-1.333 0.039l0.061-0.003h-843.776c-0.38-0.023-0.825-0.037-1.273-0.037-12.24 0-22.162 9.922-22.162 22.162s9.922 22.162 22.162 22.162c0.448 0 0.892-0.013 1.333-0.039l-0.061 0.003z" />
<glyph unicode="&#xe901;" horiz-adv-x="1132" d="M916.211 691.766v-537.654h-916.211v537.654h916.211zM883.496 664.226h-850.782v-482.573h850.782v482.573zM818.068 799.555c0.397 0.034 0.859 0.054 1.326 0.054 9.019 0 16.33-7.311 16.33-16.33s-7.311-16.33-16.33-16.33c-0.467 0-0.929 0.020-1.385 0.058l0.060-0.004h-719.98c-0.397-0.034-0.859-0.054-1.326-0.054-9.019 0-16.33 7.311-16.33 16.33s7.311 16.33 16.33 16.33c0.467 0 0.929-0.020 1.385-0.058l-0.060 0.004zM768.97 907.345c0.397 0.034 0.859 0.054 1.326 0.054 9.019 0 16.33-7.311 16.33-16.33s-7.311-16.33-16.33-16.33c-0.467 0-0.929 0.020-1.385 0.058l0.060-0.004h-621.73c-0.397-0.034-0.859-0.054-1.326-0.054-9.019 0-16.33 7.311-16.33 16.33s7.311 16.33 16.33 16.33c0.467 0 0.929-0.020 1.385-0.058l-0.060 0.004z" />
<glyph unicode="&#xe902;" horiz-adv-x="1132" d="M1131.789 205.474c0-148.826-120.647-269.474-269.474-269.474s-269.474 120.647-269.474 269.474c0 148.826 120.647 269.474 269.474 269.474s269.474-120.647 269.474-269.474z" />
<glyph unicode="&#xe903;" horiz-adv-x="1132" d="M1077.895 205.474c0-119.061-96.518-215.579-215.579-215.579s-215.579 96.518-215.579 215.579c0 119.061 96.518 215.579 215.579 215.579s215.579-96.518 215.579-215.579z" />
<glyph unicode="&#xe904;" horiz-adv-x="1132" d="M970.267 219.648h-82.351v81.92c0 10.779-8.785 11.695-19.618 11.695s-19.618-0.916-19.618-11.695v-81.92h-82.405c-10.779 0-11.749-8.731-11.749-19.51s0.916-19.51 11.749-19.51h82.405v-81.92c0-10.779 8.785-11.695 19.618-11.695 10.779 0 19.618 0.916 19.618 11.695v81.92h82.351c10.833 0 11.803 8.731 11.803 19.51s-0.97 19.51-11.803 19.51z" />
<glyph unicode="&#xe905;" glyph-name="mi-cuenta" horiz-adv-x="866" d="M273.014 405.071c4.556 3.259 10.241 5.21 16.381 5.21 9.626 0 18.131-4.796 23.258-12.129l0.061-0.092c3.228-4.575 5.16-10.267 5.16-16.41 0-9.653-4.77-18.192-12.082-23.388l-0.088-0.060c-3.545-2.363-87.513-61.282-192.591-88.458-49.152-17.566-54.587-70.341-56.084-118.705 0-1.89-0.236-3.623-0.236-5.356-0.058-2.441-0.092-5.317-0.092-8.201 0-20.214 1.637-40.046 4.787-59.369l-0.284 2.113c34.422-19.535 169.196-87.198 372.106-87.198 203.776 0 337.762 67.426 371.948 86.961 3.308 16.935 4.647 46.474 4.411 65.536-0.236 1.654-0.236 3.387-0.236 5.278-1.497 48.364-6.932 101.14-56.084 118.784-73.264 20.452-137.343 50.69-194.868 89.842l2.277-1.463c-7.4 5.256-12.171 13.795-12.171 23.448 0 6.143 1.932 11.834 5.221 16.5l-0.061-0.091c5.183 7.455 13.706 12.274 23.355 12.274 6.125 0 11.796-1.942 16.432-5.243l-0.087 0.059c0.788-0.709 79.951-55.847 175.104-80.187l2.048-0.709c91.609-31.35 94.287-129.497 95.626-171.481l0.158-5.356v-12.13c-0.079-21.031-1.654-61.755-10.082-84.283-2.264-5.6-6.082-10.179-10.918-13.324l-0.11-0.067c-6.302-4.017-157.932-101.376-411.727-101.376s-405.425 97.122-411.727 101.376c-5.001 3.15-8.839 7.75-10.964 13.206l-0.063 0.185c-8.901 22.607-10.555 63.409-10.791 84.519v12.13c0.236 1.733 0.236 3.387 0.236 5.278 1.26 41.748 4.017 139.973 95.626 171.559 0.63 0.236 1.26 0.473 2.048 0.63 95.547 24.418 174.238 79.557 175.104 80.187zM435.436 960c42.614-0.788 80.817-11.028 113.428-29.932 43.953-25.206 97.122-79.242 102.4-192.276 1.418-15.045 14.966-172.82-66.245-264.901-36.943-41.748-86.961-63.567-148.716-64.591h-6.774c-61.834 1.024-111.852 22.843-148.48 64.591-81.211 92.081-67.742 249.856-66.245 264.901 5.278 113.822 59.234 167.857 103.582 193.063 32.611 18.341 71.584 29.145 113.080 29.145 0.122 0 0.244 0 0.366 0h-0.019zM434.176 902.498h-2.521c-46.001 0-153.364-16.305-160.295-168.33 0-0.394-0.236-1.103-0.236-1.733-0.236-1.26-14.572-146.038 52.303-221.578 26.388-30.090 61.991-44.898 108.465-45.371h2.048c46.631 0.394 82.078 15.281 108.702 45.371 67.033 75.934 52.303 220.16 52.066 221.578-0.236 0.473-0.236 1.103-0.236 1.733-6.538 143.754-103.345 167.070-160.295 168.33z" />
<glyph unicode="&#xe906;" glyph-name="home" horiz-adv-x="1161" d="M1002.428 500.565c0.041 0 0.089 0 0.138 0 16.493 0 29.882-13.293 30.036-29.75v-504.984c-0.116-16.501-13.519-29.833-30.037-29.833-0.048 0-0.096 0-0.145 0h-301.527c-0.041 0-0.089 0-0.137 0-16.517 0-29.921 13.332-30.037 29.822v289.189c-0.309 49.532-40.535 89.567-90.11 89.567-0.121 0-0.241 0-0.361-0.001h0.018c-0.102 0-0.222 0.001-0.343 0.001-49.576 0-89.801-40.034-90.11-89.537v-290.436l-0.137-1.092c-1.344-15.466-14.231-27.512-29.931-27.512-0.037 0-0.075 0-0.112 0h-301.528c-0.041 0-0.089 0-0.137 0-16.517 0-29.921 13.332-30.037 29.822v504.98c0.116 16.501 13.519 29.833 30.037 29.833 0.048 0 0.096 0 0.145 0h-0.007c0.041 0 0.089 0 0.137 0 16.517 0 29.921-13.332 30.037-29.822v-475.147h241.118v259.413c0 82.261 67.652 149.163 150.801 149.163s150.801-66.901 150.801-149.231v-259.345h241.186v475.136c0.116 16.501 13.519 29.833 30.037 29.833 0.048 0 0.096 0 0.145 0h-0.007zM562.449 954.334c4.935 3.609 11.123 5.774 17.818 5.774s12.883-2.165 17.904-5.834l-0.086 0.060 550.093-398.677c13.449-9.762 16.384-28.467 6.554-41.779-5.57-7.474-14.385-12.263-24.317-12.263-6.723 0-12.933 2.193-17.954 5.904l0.083-0.058-532.275 385.638-532.275-385.707c-4.94-3.62-11.137-5.792-17.843-5.792-9.93 0-18.747 4.764-24.29 12.131l-0.056 0.078c-3.632 4.862-5.815 10.99-5.815 17.629 0 9.885 4.841 18.64 12.282 24.022l0.087 0.060z" />
<glyph unicode="&#xe907;" glyph-name="salir" d="M735.983 960c17.749 0 32.017-14.336 32.017-32.017v-95.983h-63.966v63.966h-640v-896h640v64.034h63.966v-95.983c0-17.749-14.336-32.017-32.017-32.017h-703.898c-0.041 0-0.089 0-0.137 0-17.645 0-31.949 14.304-31.949 31.949 0 0.024 0 0.048 0 0.072v-0.004 959.898c0 17.818 14.336 32.085 32.017 32.085zM809.37 662.63l214.63-214.63-214.63-214.63-45.261 45.261 137.421 137.353h-453.564v64.102h453.564l-137.421 137.216 45.261 45.261z" />
</font></defs></svg>